<?xml version="1.0" encoding="UTF-8" standalone="no"?>
<!-- Created with Inkscape (http://www.inkscape.org/) -->

<svg
   width="512mm"
   height="512mm"
   viewBox="0 0 512 512"
   version="1.1"
   id="svg5"
   inkscape:version="1.1.2 (0a00cf5339, 2022-02-04)"
   sodipodi:docname="logo.svg"
   xmlns:inkscape="http://www.inkscape.org/namespaces/inkscape"
   xmlns:sodipodi="http://sodipodi.sourceforge.net/DTD/sodipodi-0.dtd"
   xmlns="http://www.w3.org/2000/svg"
   xmlns:svg="http://www.w3.org/2000/svg">
  <sodipodi:namedview
     id="namedview7"
     pagecolor="#ffffff"
     bordercolor="#666666"
     borderopacity="1.0"
     inkscape:pageshadow="2"
     inkscape:pageopacity="0.0"
     inkscape:pagecheckerboard="true"
     inkscape:document-units="mm"
     showgrid="false"
     width="512mm"
     showguides="true"
     inkscape:guide-bbox="true"
     inkscape:zoom="0.42961102"
     inkscape:cx="853.0973"
     inkscape:cy="814.69046"
     inkscape:window-width="1920"
     inkscape:window-height="1028"
     inkscape:window-x="1920"
     inkscape:window-y="105"
     inkscape:window-maximized="1"
     inkscape:current-layer="text8262">
    <sodipodi:guide
       position="42.708152,371.10706"
       orientation="1,0"
       id="guide4424" />
    <sodipodi:guide
       position="63.434319,421.46751"
       orientation="0,-1"
       id="guide4802" />
    <sodipodi:guide
       position="-48.653507,90.746835"
       orientation="0,-1"
       id="guide4804" />
  </sodipodi:namedview>
  <defs
     id="defs2">
    <inkscape:path-effect
       effect="copy_rotate"
       starting_point="0,0"
       origin="42.708153,119.40774"
       id="path-effect4706"
       is_visible="true"
       lpeversion="1"
       method="normal"
       num_copies="5"
       starting_angle="0"
       rotation_angle="1.5"
       gap="100"
       copies_to_360="false"
       mirror_copies="false"
       split_items="false" />
    <inkscape:path-effect
       effect="construct_grid"
       id="path-effect4704"
       is_visible="true"
       lpeversion="1"
       nr_x="5"
       nr_y="5" />
    <inkscape:path-effect
       effect="clone_original"
       id="path-effect4702"
       is_visible="true"
       lpeversion="1"
       linkeditem=""
       method="none"
       attributes=""
       css_properties=""
       allow_transforms="true" />
    <inkscape:path-effect
       effect="mirror_symmetry"
       start_point="469.29185,97.922546"
       end_point="469.29185,140.89293"
       center_point="469.29185,119.40774"
       id="path-effect4700"
       is_visible="true"
       lpeversion="1.1"
       mode="horizontal"
       discard_orig_path="false"
       fuse_paths="false"
       oposite_fuse="false"
       split_items="false"
       split_open="false" />
    <inkscape:path-effect
       effect="construct_grid"
       id="path-effect4698"
       is_visible="true"
       lpeversion="1"
       nr_x="5"
       nr_y="5" />
    <inkscape:path-effect
       effect="copy_rotate"
       starting_point="0,0"
       origin="42.708153,119.40774"
       id="path-effect4696"
       is_visible="true"
       lpeversion="1"
       method="normal"
       num_copies="4"
       starting_angle="0"
       rotation_angle="10"
       gap="0.04"
       copies_to_360="false"
       mirror_copies="false"
       split_items="false" />
    <inkscape:path-effect
       effect="copy_rotate"
       starting_point="0,0"
       origin="42.708153,119.40774"
       id="path-effect4694"
       is_visible="true"
       lpeversion="1"
       method="normal"
       num_copies="6"
       starting_angle="0"
       rotation_angle="60"
       gap="-0.01"
       copies_to_360="true"
       mirror_copies="false"
       split_items="false" />
    <inkscape:path-effect
       effect="mirror_symmetry"
       start_point="42.708153,119.40774"
       end_point="90.161659,140.89293"
       center_point="90.161659,119.40774"
       id="path-effect4692"
       is_visible="true"
       lpeversion="1.1"
       mode="vertical"
       discard_orig_path="false"
       fuse_paths="false"
       oposite_fuse="false"
       split_items="false"
       split_open="false" />
    <inkscape:path-effect
       effect="mirror_symmetry"
       start_point="252.26361,97.922546"
       end_point="252.26361,398.90141"
       center_point="252.26361,248.41198"
       id="path-effect3978"
       is_visible="true"
       lpeversion="1.1"
       mode="free"
       discard_orig_path="false"
       fuse_paths="false"
       oposite_fuse="false"
       split_items="false"
       split_open="false" />
    <linearGradient
       id="linearGradient3298"
       inkscape:swatch="solid">
      <stop
         style="stop-color:#000000;stop-opacity:1;"
         offset="0"
         id="stop3296" />
    </linearGradient>
    <inkscape:path-effect
       effect="mirror_symmetry"
       start_point="39.6875,8.8058753"
       end_point="39.6875,47.649372"
       center_point="39.6875,28.227624"
       id="path-effect4692-9"
       is_visible="true"
       lpeversion="1.1"
       mode="vertical"
       discard_orig_path="false"
       fuse_paths="false"
       oposite_fuse="false"
       split_items="false"
       split_open="false" />
    <inkscape:path-effect
       effect="mirror_symmetry"
       start_point="39.6875,8.8058753"
       end_point="39.6875,47.649372"
       center_point="39.6875,28.227624"
       id="path-effect4692-7"
       is_visible="true"
       lpeversion="1.1"
       mode="vertical"
       discard_orig_path="false"
       fuse_paths="false"
       oposite_fuse="false"
       split_items="false"
       split_open="false" />
    <inkscape:path-effect
       effect="mirror_symmetry"
       start_point="39.6875,8.8058753"
       end_point="39.6875,47.649372"
       center_point="39.6875,28.227624"
       id="path-effect4692-4"
       is_visible="true"
       lpeversion="1.1"
       mode="vertical"
       discard_orig_path="false"
       fuse_paths="false"
       oposite_fuse="false"
       split_items="false"
       split_open="false" />
    <inkscape:path-effect
       effect="mirror_symmetry"
       start_point="39.6875,8.8058753"
       end_point="39.6875,47.649372"
       center_point="39.6875,28.227624"
       id="path-effect4692-5"
       is_visible="true"
       lpeversion="1.1"
       mode="vertical"
       discard_orig_path="false"
       fuse_paths="false"
       oposite_fuse="false"
       split_items="false"
       split_open="false" />
    <inkscape:path-effect
       effect="mirror_symmetry"
       start_point="39.6875,8.8058753"
       end_point="39.6875,47.649372"
       center_point="39.6875,28.227624"
       id="path-effect4692-1"
       is_visible="true"
       lpeversion="1.1"
       mode="vertical"
       discard_orig_path="false"
       fuse_paths="false"
       oposite_fuse="false"
       split_items="false"
       split_open="false" />
  </defs>
  <g
     inkscape:label="Layer 1"
     inkscape:groupmode="layer"
     id="layer1">
    <rect
       style="fill:#000000;fill-opacity:1;fill-rule:evenodd;stroke-width:0.264583"
       id="rect495"
       width="464.10355"
       height="378.18372"
       x="23.948227"
       y="66.908142"
       ry="26.155346" />
    <path
       style="fill:#ffffff;fill-opacity:1;stroke-width:0.180788"
       id="rect3346"
       width="309.04712"
       height="329.69281"
       x="101.47644"
       y="91.153595"
       ry="0"
       rx="0"
       sodipodi:type="rect"
       d="M 101.47644,91.153595 H 410.52356 V 420.84641 H 101.47644 Z" />
    <path
       style="fill:#ffffff;fill-opacity:1;stroke-width:0.0405604"
       id="rect3346-0"
       width="47.453506"
       height="42.970379"
       x="42.708153"
       y="97.922546"
       ry="2.2236443"
       rx="0"
       sodipodi:type="rect"
       d="m 44.931797,97.922546 h 43.006218 c 1.231899,0 2.223644,0.991746 2.223644,2.223644 v 38.52309 c 0,1.2319 -0.991745,2.22365 -2.223644,2.22365 H 44.931797 c -1.231899,0 -2.223644,-0.99175 -2.223644,-2.22365 v -38.52309 c 0,-1.231898 0.991745,-2.223644 2.223644,-2.223644 z m 422.136403,0 h -43.00622 c -1.23189,0 -2.22364,0.991746 -2.22364,2.223644 v 38.52309 c 0,1.2319 0.99175,2.22365 2.22364,2.22365 h 43.00622 c 1.2319,0 2.22365,-0.99175 2.22365,-2.22365 v -38.52309 c 0,-1.231898 -0.99175,-2.223644 -2.22365,-2.223644 z"
       inkscape:path-effect="#path-effect4692"
       transform="matrix(1,0,0,1.0217283,4.1695207e-7,-9.5177622)" />
    <path
       style="fill:#ffffff;fill-opacity:1;stroke-width:0.0405604"
       id="rect3346-0-9"
       width="47.453506"
       height="42.970379"
       x="42.708153"
       y="97.922546"
       ry="2.2236443"
       rx="0"
       sodipodi:type="rect"
       inkscape:path-effect="#path-effect4692-9"
       transform="matrix(1,0,0,1.0217283,4.1695302e-7,47.845565)"
       d="m 44.931797,97.922546 h 43.006218 c 1.231899,0 2.223644,0.991746 2.223644,2.223644 v 38.52309 c 0,1.2319 -0.991745,2.22365 -2.223644,2.22365 H 44.931797 c -1.231899,0 -2.223644,-0.99175 -2.223644,-2.22365 v -38.52309 c 0,-1.231898 0.991745,-2.223644 2.223644,-2.223644 z m 422.136403,0 h -43.00622 c -1.23189,0 -2.22364,0.991746 -2.22364,2.223644 v 38.52309 c 0,1.2319 0.99175,2.22365 2.22364,2.22365 h 43.00622 c 1.2319,0 2.22365,-0.99175 2.22365,-2.22365 v -38.52309 c 0,-1.231898 -0.99175,-2.223644 -2.22365,-2.223644 z" />
    <path
       style="fill:#ffffff;fill-opacity:1;stroke-width:0.0405604"
       id="rect3346-0-2"
       width="47.453506"
       height="42.970379"
       x="42.708153"
       y="97.922546"
       ry="2.2236443"
       rx="0"
       sodipodi:type="rect"
       inkscape:path-effect="#path-effect4692-7"
       transform="matrix(1,0,0,1.0217283,4.1695302e-7,105.20889)"
       d="m 44.931797,97.922546 h 43.006218 c 1.231899,0 2.223644,0.991746 2.223644,2.223644 v 38.52309 c 0,1.2319 -0.991745,2.22365 -2.223644,2.22365 H 44.931797 c -1.231899,0 -2.223644,-0.99175 -2.223644,-2.22365 v -38.52309 c 0,-1.231898 0.991745,-2.223644 2.223644,-2.223644 z m 422.136403,0 h -43.00622 c -1.23189,0 -2.22364,0.991746 -2.22364,2.223644 v 38.52309 c 0,1.2319 0.99175,2.22365 2.22364,2.22365 h 43.00622 c 1.2319,0 2.22365,-0.99175 2.22365,-2.22365 v -38.52309 c 0,-1.231898 -0.99175,-2.223644 -2.22365,-2.223644 z" />
    <path
       style="fill:#ffffff;fill-opacity:1;stroke-width:0.0405604"
       id="rect3346-0-1"
       width="47.453506"
       height="42.970379"
       x="42.708153"
       y="97.922546"
       ry="2.2236443"
       rx="0"
       sodipodi:type="rect"
       inkscape:path-effect="#path-effect4692-4"
       transform="matrix(1,0,0,1.0217283,4.1695111e-7,162.57222)"
       d="m 44.931797,97.922546 h 43.006218 c 1.231899,0 2.223644,0.991746 2.223644,2.223644 v 38.52309 c 0,1.2319 -0.991745,2.22365 -2.223644,2.22365 H 44.931797 c -1.231899,0 -2.223644,-0.99175 -2.223644,-2.22365 v -38.52309 c 0,-1.231898 0.991745,-2.223644 2.223644,-2.223644 z m 422.136403,0 h -43.00622 c -1.23189,0 -2.22364,0.991746 -2.22364,2.223644 v 38.52309 c 0,1.2319 0.99175,2.22365 2.22364,2.22365 h 43.00622 c 1.2319,0 2.22365,-0.99175 2.22365,-2.22365 v -38.52309 c 0,-1.231898 -0.99175,-2.223644 -2.22365,-2.223644 z" />
    <path
       style="fill:#ffffff;fill-opacity:1;stroke-width:0.0405604"
       id="rect3346-0-3"
       width="47.453506"
       height="42.970379"
       x="42.708153"
       y="97.922546"
       ry="2.2236443"
       rx="0"
       sodipodi:type="rect"
       inkscape:path-effect="#path-effect4692-5"
       transform="matrix(1,0,0,1.0217283,4.169511e-7,219.93553)"
       d="m 44.931797,97.922546 h 43.006218 c 1.231899,0 2.223644,0.991746 2.223644,2.223644 v 38.52309 c 0,1.2319 -0.991745,2.22365 -2.223644,2.22365 H 44.931797 c -1.231899,0 -2.223644,-0.99175 -2.223644,-2.22365 v -38.52309 c 0,-1.231898 0.991745,-2.223644 2.223644,-2.223644 z m 422.136403,0 h -43.00622 c -1.23189,0 -2.22364,0.991746 -2.22364,2.223644 v 38.52309 c 0,1.2319 0.99175,2.22365 2.22364,2.22365 h 43.00622 c 1.2319,0 2.22365,-0.99175 2.22365,-2.22365 v -38.52309 c 0,-1.231898 -0.99175,-2.223644 -2.22365,-2.223644 z" />
    <path
       style="fill:#ffffff;fill-opacity:1;stroke-width:0.0405604"
       id="rect3346-0-5"
       width="47.453506"
       height="42.970379"
       x="42.708153"
       y="97.922546"
       ry="2.2236443"
       rx="0"
       sodipodi:type="rect"
       inkscape:path-effect="#path-effect4692-1"
       transform="matrix(1,0,0,1.0217283,4.1695111e-7,277.29882)"
       d="m 44.931797,97.922546 h 43.006218 c 1.231899,0 2.223644,0.991746 2.223644,2.223644 v 38.52309 c 0,1.2319 -0.991745,2.22365 -2.223644,2.22365 H 44.931797 c -1.231899,0 -2.223644,-0.99175 -2.223644,-2.22365 v -38.52309 c 0,-1.231898 0.991745,-2.223644 2.223644,-2.223644 z m 422.136403,0 h -43.00622 c -1.23189,0 -2.22364,0.991746 -2.22364,2.223644 v 38.52309 c 0,1.2319 0.99175,2.22365 2.22364,2.22365 h 43.00622 c 1.2319,0 2.22365,-0.99175 2.22365,-2.22365 v -38.52309 c 0,-1.231898 -0.99175,-2.223644 -2.22365,-2.223644 z" />
    <g
       aria-label="WTF
OSD"
       id="text8262"
       style="font-size:105.833px;line-height:1.25;stroke-width:0.264583">
      <path
         d="m 131.40852,150.52874 h 19.06855 l 13.33247,56.06875 13.22913,-56.06875 h 19.1719 l 13.22912,56.06875 13.33248,-56.06875 h 18.91351 l -18.19004,77.15267 H 200.55137 L 186.5471,169.02885 172.69786,227.68141 H 149.7536 Z"
         style="font-weight:bold;-inkscape-font-specification:'sans-serif Bold';text-align:center;text-anchor:middle"
         id="path37800" />
      <path
         d="m 245.50973,150.52874 h 71.10654 v 15.0378 h -25.57975 v 62.11487 h -19.89536 v -62.11487 h -25.63143 z"
         style="font-weight:bold;-inkscape-font-specification:'sans-serif Bold';text-align:center;text-anchor:middle"
         id="path37802" />
      <path
         d="m 326.89985,150.52874 h 53.69164 v 15.0378 h -33.79628 v 14.366 h 31.78091 v 15.03779 h -31.78091 v 32.71108 h -19.89536 z"
         style="font-weight:bold;-inkscape-font-specification:'sans-serif Bold';text-align:center;text-anchor:middle"
         id="path37804" />
      <path
         d="m 176.80613,295.84241 q -9.09503,0 -14.10763,6.71792 -5.01259,6.71791 -5.01259,18.91351 0,12.14392 5.01259,18.86184 5.0126,6.71791 14.10763,6.71791 9.1467,0 14.15929,-6.71791 5.0126,-6.71792 5.0126,-18.86184 0,-12.1956 -5.0126,-18.91351 -5.01259,-6.71792 -14.15929,-6.71792 z m 0,-14.41768 q 18.60345,0 29.14541,10.64531 10.54196,10.64532 10.54196,29.4038 0,18.70681 -10.54196,29.35212 -10.54196,10.64531 -29.14541,10.64531 -18.55178,0 -29.14542,-10.64531 -10.54196,-10.64531 -10.54196,-29.35212 0,-18.75848 10.54196,-29.4038 10.59364,-10.64531 29.14542,-10.64531 z"
         style="font-weight:bold;-inkscape-font-specification:'sans-serif Bold';text-align:center;text-anchor:middle"
         id="path37806" />
      <path
         d="m 285.22294,285.24878 v 16.3297 q -6.35618,-2.8422 -12.40231,-4.28913 -6.04612,-1.44694 -11.42045,-1.44694 -7.13133,0 -10.54196,1.9637 -3.41064,1.9637 -3.41064,6.0978 0,3.10058 2.27376,4.85757 2.32543,1.70532 8.37156,2.94555 l 8.4749,1.70531 q 12.8674,2.58382 18.2934,7.8548 5.42601,5.27098 5.42601,14.98611 0,12.76404 -7.59641,19.01687 -7.54473,6.20115 -23.09929,6.20115 -7.33803,0 -14.72774,-1.39526 -7.38971,-1.39525 -14.77941,-4.1341 v -16.79478 q 7.3897,3.92739 14.26265,5.94277 6.92462,1.96369 13.33248,1.96369 6.51121,0 9.97352,-2.1704 3.46231,-2.1704 3.46231,-6.20115 0,-3.61734 -2.37711,-5.58104 -2.32543,-1.9637 -9.35341,-3.51398 l -7.69976,-1.70532 q -11.57549,-2.48046 -16.94982,-7.90647 -5.32265,-5.42601 -5.32265,-14.62439 0,-11.5238 7.44138,-17.72496 7.44138,-6.20115 21.39398,-6.20115 6.35618,0 13.07409,0.98185 6.71792,0.93017 13.90092,2.8422 z"
         style="font-weight:bold;-inkscape-font-specification:'sans-serif Bold';text-align:center;text-anchor:middle"
         id="path37808" />
      <path
         d="m 327.64916,297.85779 v 47.07708 h 7.13133 q 12.1956,0 18.60345,-6.04613 6.45954,-6.04612 6.45954,-17.56993 0,-11.47213 -6.40786,-17.46658 -6.40786,-5.99444 -18.65513,-5.99444 z m -19.89536,-15.0378 h 20.98056 q 17.56993,0 26.1482,2.53214 8.62993,2.48046 14.77941,8.47491 5.42601,5.2193 8.0615,12.04057 2.63549,6.82127 2.63549,15.4512 0,8.73329 -2.63549,15.60624 -2.63549,6.82126 -8.0615,12.04057 -6.20115,5.99444 -14.88277,8.52658 -8.68161,2.48046 -26.04484,2.48046 H 307.7538 Z"
         style="font-weight:bold;-inkscape-font-specification:'sans-serif Bold';text-align:center;text-anchor:middle"
         id="path37810" />
    </g>
  </g>
</svg>
